{
    "count": 87,
    "page": 1,
    "page_count": 10,
    "page_size": 10,
    "products": [
        {
            "code": "8901262140065",
            "image_ingredients_url": "https://images.openfoodfacts.org/images/products/890/126/214/0065/ingredients_en.7.400.jpg",
            "product_name": "Lite Bread Spread"
        },
        {
            "code": "8906001387114",
            "image_ingredients_url": "https://images.openfoodfacts.org/images/products/890/600/138/7114/ingredients_en.5.400.jpg",
            "product_name": "Multi Grain High Fibre Bread"
        },
        {
            "code": "8901063338685",
            "image_ingredients_url": "https://images.openfoodfacts.org/images/products/890/106/333/8685/ingredients_en.9.400.jpg",
            "product_name": "Brown bread"
        },
        {
            "code": "8901063342934",
            "image_ingredients_url": "https://images.openfoodfacts.org/images/products/890/106/334/2934/ingredients_en.7.400.jpg",
            "product_name": "100% Whole Wheat Sandwich Bread"
        },
        {
            "code": "8908001032124",
            "image_ingredients_url": "https://images.openfoodfacts.org/images/products/890/800/103/2124/ingredients_en.7.400.jpg",
            "product_name": "Multi Grain Bread"
        },
        {
            "code": "8901063342026",
            "image_ingredients_url": "https://images.openfoodfacts.org/images/products/890/106/334/2026/ingredients_en.7.400.jpg",
            "product_name": "Vitarich Sandwich Premium White Bread"
        },
        {
            "code": "8904043553054",
            "image_ingredients_url": "https://images.openfoodfacts.org/images/products/890/404/355/3054/ingredients_en.5.400.jpg",
            "product_name": "Milk Plus Bread"
        },
        {
            "code": "8939108804864",
            "image_ingredients_url": "https://images.openfoodfacts.org/images/products/893/910/880/4864/ingredients_en.7.400.jpg",
            "product_name": "Whole Wheat Chapati"
        },
        {
            "code": "8904043551494",
            "image_ingredients_url": "https://images.openfoodfacts.org/images/products/890/404/355/1494/ingredients_en.5.400.jpg",
            "product_name": "Fruity"
        },
        {
            "code": "8902901013177",
            "image_ingredients_url": "https://images.openfoodfacts.org/images/products/890/290/101/3177/ingredients_en.5.400.jpg",
            "product_name": "Multi Grain Bread"
        }
    ],
    "skip": 0
}
